[
    {
        "prim": "PUSH",
        "args": [
            {
                "prim": "mutez"
            },
            {
                "int": "0"
            }
        ]
    },
    {
        "prim": "NONE",
        "args": [
            {
                "prim": "key_hash"
            }
        ]
    },
    {
        "prim": "CREATE_CONTRACT",
        "args": [
            [
                {
                    "prim": "parameter",
                    "args": [
                        {
                            "prim": "nat"
                        }
                    ]
                },
                {
                    "prim": "storage",
                    "args": [
                        {
                            "prim": "unit"
                        }
                    ]
                },
                {
                    "prim": "code",
                    "args": [
                        [
                            {
                                "prim": "FAILWITH"
                            }
                        ]
                    ]
                }
            ]
        ]
    },
    {
        "prim": "DIP",
        "args": [
            [
                {
                    "prim": "DIP",
                    "args": [
                        [
                            {
                                "prim": "LAMBDA",
                                "args": [
                                    {
                                        "prim": "pair",
                                        "args": [
                                            {
                                                "prim": "address"
                                            },
                                            {
                                                "prim": "unit"
                                            }
                                        ]
                                    },
                                    {
                                        "prim": "pair",
                                        "args": [
                                            {
                                                "prim": "list",
                                                "args": [
                                                    {
                                                        "prim": "operation"
                                                    }
                                                ]
                                            },
                                            {
                                                "prim": "unit"
                                            }
                                        ]
                                    },
                                    [
                                        {
                                            "prim": "CAR"
                                        },
                                        {
                                            "prim": "CONTRACT",
                                            "args": [
                                                {
                                                    "prim": "nat"
                                                }
                                            ]
                                        },
                                        {
                                            "prim": "IF_NONE",
                                            "args": [
                                                [
                                                    {
                                                        "prim": "PUSH",
                                                        "args": [
                                                            {
                                                                "prim": "string"
                                                            },
                                                            {
                                                                "string": "a"
                                                            }
                                                        ]
                                                    },
                                                    {
                                                        "prim": "FAILWITH"
                                                    }
                                                ],
                                                []
                                            ]
                                        },
                                        {
                                            "prim": "PUSH",
                                            "args": [
                                                {
                                                    "prim": "unit"
                                                },
                                                {
                                                    "prim": "Unit"
                                                }
                                            ]
                                        },
                                        {
                                            "prim": "PAIR"
                                        },
                                        {
                                            "prim": "DIP",
                                            "args": [
                                                [
                                                    {
                                                        "prim": "PUSH",
                                                        "args": [
                                                            {
                                                                "prim": "address"
                                                            },
                                                            {
                                                                "string": "$token_address"
                                                            }
                                                        ]
                                                    },
                                                    {
                                                        "prim": "CONTRACT",
                                                        "args": [
                                                            {
                                                                "prim": "pair",
                                                                "args": [
                                                                    {
                                                                        "prim": "unit"
                                                                    },
                                                                    {
                                                                        "prim": "contract",
                                                                        "args": [
                                                                            {
                                                                                "prim": "nat"
                                                                            }
                                                                        ]
                                                                    }
                                                                ]
                                                            }
                                                        ],
                                                        "annots": [
                                                            "%getTotalSupply"
                                                        ]
                                                    },
                                                    {
                                                        "prim": "IF_NONE",
                                                        "args": [
                                                            [
                                                                {
                                                                    "prim": "PUSH",
                                                                    "args": [
                                                                        {
                                                                            "prim": "string"
                                                                        },
                                                                        {
                                                                            "string": "b"
                                                                        }
                                                                    ]
                                                                },
                                                                {
                                                                    "prim": "FAILWITH"
                                                                }
                                                            ],
                                                            []
                                                        ]
                                                    },
                                                    {
                                                        "prim": "PUSH",
                                                        "args": [
                                                            {
                                                                "prim": "mutez"
                                                            },
                                                            {
                                                                "int": "0"
                                                            }
                                                        ]
                                                    }
                                                ]
                                            ]
                                        },
                                        {
                                            "prim": "TRANSFER_TOKENS"
                                        },
                                        {
                                            "prim": "DIP",
                                            "args": [
                                                [
                                                    {
                                                        "prim": "NIL",
                                                        "args": [
                                                            {
                                                                "prim": "operation"
                                                            }
                                                        ]
                                                    }
                                                ]
                                            ]
                                        },
                                        {
                                            "prim": "CONS"
                                        },
                                        {
                                            "prim": "DIP",
                                            "args": [
                                                [
                                                    {
                                                        "prim": "UNIT"
                                                    }
                                                ]
                                            ]
                                        },
                                        {
                                            "prim": "PAIR"
                                        }
                                    ]
                                ]
                            }
                        ]
                    ]
                },
                {
                    "prim": "APPLY"
                },
                {
                    "prim": "DIP",
                    "args": [
                        [
                            {
                                "prim": "PUSH",
                                "args": [
                                    {
                                        "prim": "address"
                                    },
                                    {
                                        "string": "$contract_view_address"
                                    }
                                ]
                            },
                            {
                                "prim": "CONTRACT",
                                "args": [
                                    {
                                        "prim": "lambda",
                                        "args": [
                                            {
                                                "prim": "unit"
                                            },
                                            {
                                                "prim": "pair",
                                                "args": [
                                                    {
                                                        "prim": "list",
                                                        "args": [
                                                            {
                                                                "prim": "operation"
                                                            }
                                                        ]
                                                    },
                                                    {
                                                        "prim": "unit"
                                                    }
                                                ]
                                            }
                                        ]
                                    }
                                ]
                            },
                            {
                                "prim": "IF_NONE",
                                "args": [
                                    [
                                        {
                                            "prim": "PUSH",
                                            "args": [
                                                {
                                                    "prim": "string"
                                                },
                                                {
                                                    "string": "c"
                                                }
                                            ]
                                        },
                                        {
                                            "prim": "FAILWITH"
                                        }
                                    ],
                                    []
                                ]
                            },
                            {
                                "prim": "PUSH",
                                "args": [
                                    {
                                        "prim": "mutez"
                                    },
                                    {
                                        "int": "0"
                                    }
                                ]
                            }
                        ]
                    ]
                },
                {
                    "prim": "TRANSFER_TOKENS"
                },
                {
                    "prim": "DIP",
                    "args": [
                        [
                            {
                                "prim": "NIL",
                                "args": [
                                    {
                                        "prim": "operation"
                                    }
                                ]
                            }
                        ]
                    ]
                },
                {
                    "prim": "CONS"
                }
            ]
        ]
    },
    {
        "prim": "CONS"
    },
    {
        "prim": "DIP",
        "args": [
            [
                {
                    "prim": "UNIT"
                }
            ]
        ]
    },
    {
        "prim": "PAIR"
    }
]
