[
  {
    "xtz_pool": "20000000",
    "token_pool": "1000",
    "token_in": "1000",
    "xtz_out": "9984977",
    "slippage": "0.5007"
  },
  {
    "xtz_pool": "20000000",
    "token_pool": "1000",
    "token_in": "100",
    "xtz_out": "1813221",
    "slippage": "0.0933"
  },  
  {
    "xtz_pool": "20000000",
    "token_pool": "1000",
    "token_in": "10",
    "xtz_out": "197431",
    "slippage": "0.0128"
  },
  {
    "xtz_pool": "20000000",
    "token_pool": "1000",
    "token_in": "1",
    "xtz_out": "19920",
    "slippage": "0.0040"
  },
  {
    "xtz_pool": "20000000",
    "token_pool": "1000",
    "token_in": "240",
    "xtz_out": "3861597",
    "slippage": "0.1955"
  },
  {
    "xtz_pool": "20000000",
    "token_pool": "1000",
    "token_in": "116",
    "xtz_out": "2073262",
    "slippage": "0.1063"
  },
  {
    "xtz_pool": "20000000",
    "token_pool": "1000",
    "token_in": "923",
    "xtz_out": "9584586",
    "slippage": "0.4807"
  },
  {
    "xtz_pool": "19500000",
    "token_pool": "919",
    "token_in": "100",
    "xtz_out": "1908461",
    "slippage": "0.1005"
  },
  {
    "xtz_pool": "17591539",
    "token_pool": "1019",
    "token_in": "81",
    "xtz_out": "1291776",
    "slippage": "0.0762"
  }  
]
