[
  {
    "xtz_pool": "1000000000",
    "token_pool": "250000",
    "xtz_in": "1000000",
    "token_out": "249",
    "slippage": "0.0040"
  },
  {
    "xtz_pool": "1000000000",
    "token_pool": "250000",
    "xtz_in": "2000000",
    "token_out": "497",
    "slippage": "0.0059"
  },
  {
    "xtz_pool": "1000000000",
    "token_pool": "250000",
    "xtz_in": "5000000",
    "token_out": "1240",
    "slippage": "0.0079"
  },
  {
    "xtz_pool": "1000000000",
    "token_pool": "250000",
    "xtz_in": "10000000",
    "token_out": "2467",
    "slippage": "0.0132"
  },
  {
    "xtz_pool": "1000000000",
    "token_pool": "250000",
    "xtz_in": "100000000",
    "token_out": "22665",
    "slippage": "0.0934"
  },
  {
    "xtz_pool": "355200000",
    "token_pool": "30000",
    "xtz_in": "1000000",
    "token_out": "83",
    "slippage": "0.0172"
  },
  {
    "xtz_pool": "355200000",
    "token_pool": "30000",
    "xtz_in": "34020000",
    "token_out": "2614",
    "slippage": "0.0902"
  },
  {
    "xtz_pool": "10000000000",
    "token_pool": "15200",
    "xtz_in": "10000000",
    "token_out": "15",
    "slippage": "0.0131"
  },
  {
    "xtz_pool": "10000000000",
    "token_pool": "15200",
    "xtz_in": "23100000",
    "token_out": "34",
    "slippage": "0.0316"
  },
  {
    "xtz_pool": "10000000000",
    "token_pool": "15200",
    "xtz_in": "67000000",
    "token_out": "100",
    "slippage": "0.01806"
  },
  {
    "xtz_pool": "10000000000",
    "token_pool": "15200",
    "xtz_in": "1050000",
    "token_out": "1",
    "slippage": "0.3734"
  },
  {
    "xtz_pool": "10000000000",
    "token_pool": "15200",
    "xtz_in": "4423000",
    "token_out": "6",
    "slippage": "0.1075"
  },
  {
    "xtz_pool": "103000000",
    "token_pool": "101000",
    "xtz_in": "1000000",
    "token_out": "968",
    "slippage": "0.0128"
  },
  {
    "xtz_pool": "10000000",
    "token_pool": "1000",
    "xtz_in": "2000000",
    "token_out": "166",
    "slippage": "0.1700"
  },
  {
    "xtz_pool": "12000000",
    "token_pool": "834",
    "xtz_in": "2500000",
    "token_out": "143",
    "slippage": "0.1769"
  },
  {
    "xtz_pool": "14500000",
    "token_pool": "691",
    "xtz_in": "6125000",
    "token_out": "204",
    "slippage": "0.3011"
  },
  {
    "xtz_pool": "14500000",
    "token_pool": "1234",
    "xtz_in": "5000000",
    "token_out": "315",
    "slippage": "0.2597"
  }
]
